[gd_scene load_steps=3 format=2]

[ext_resource path="res://Player.gd" type="Script" id=1]

[sub_resource type="RectangleShape2D" id=1]
extents = Vector2( 4.45442, 10 )

[node name="Player" type="KinematicBody2D"]
script = ExtResource( 1 )

[node name="ColorRect" type="ColorRect" parent="."]
margin_right = 9.0
margin_bottom = 20.0
color = Color( 0.243137, 0, 1, 1 )

[node name="CollisionShape2D" type="CollisionShape2D" parent="."]
position = Vector2( 4.60065, 9.9374 )
shape = SubResource( 1 )

[node name="GroundRay" type="RayCast2D" parent="."]
position = Vector2( 4.43084, 19.0419 )
scale = Vector2( 0.25, 0.5 )
enabled = true
cast_to = Vector2( 0, 2 )
collision_mask = 1048575

[node name="Label" type="Label" parent="."]
margin_left = 10.0
margin_right = 38.0
margin_bottom = 14.0
